…
``` r
#checking data
anti_join(bakers, bakes)
```

    ## Joining with `by = join_by(id)`

    ## # A tibble: 26 × 2
    ##    id        last_name      
    ##    <chr>     <chr>          
    ##  1 2.Jo      Wheatley       
    ##  2 9.Antony  Amourdoux      
    ##  3 9.Briony  Williams       
    ##  4 9.Dan     Beasley-Harling
    ##  5 9.Imelda  McCarron       
    ##  6 9.Jon     Jenkins        
    ##  7 9.Karen   Wright         
    ##  8 9.Kim-Joy Hewlett        
    ##  9 9.Luke    Thompson       
    ## 10 9.Manon   Lagrave        
    ## # ℹ 16 more rows
…
